Danish Kings - Aflevering uge 10
…
Is your data messy? Fix it before re-importing to R

Do your start and end of reign columns contain NAs? Choose the right
strategy to deal with them: na.omit(),
na.rm=TRUE, !is.na()

Create a new column called duration in the kings
dataset, utilizing the mutate() function from tidyverse.
Check with your group to brainstorm the options.

# YOUR CODE
kings2

## # A tibble: 57 × 11
##    Name    House Start_year End_year Birth_year Death_year Gender Dynasty Source
##    <chr>   <chr>      <dbl>    <dbl>      <dbl>      <dbl> <chr>  <chr>   <chr> 
##  1 Gorm d… Gorm         936      958        908        958 M      Jellin… https…
##  2 Harald… Gorm          NA       NA        936        985 M      Jellin… https…
##  3 Toke_G… Gorm         985      986         NA        986 M      Jellin… https…
##  4 Svend … Gorm          NA       NA         NA       1014 M      Jellin… https…
##  5 Harald… Gorm        1014     1018        963         NA M      Jellin… https…
##  6 Knud 1… Gorm        1018     1035         NA       1035 M      Jellin… https…
##  7 Hardek… Gorm        1035     1042        995       1042 M      Jellin… https…
##  8 Magnus… Fair…       1042     1047       1018       1047 M      Jellin… https…
##  9 Svend … Estr…       1047     1074       1024       1076 M      <NA>    https…
## 10 Harald… Estr…       1074     1080       1019       1080 M      Jellin… https…
## # ℹ 47 more rows
## # ℹ 2 more variables: BirthDMY <chr>, DeathDMY <chr>
…
# Filtrer konger med længere end gennemsnitlig regeringstid og vis dem
kings2 %>%
  mutate(Duration = End_year - Start_year) %>%
  filter(Duration > average_duration) %>%
  select(Name, Start_year, End_year, Duration) %>%
  arrange(desc(Duration)) %>%
  print()

## # A tibble: 25 × 4
##    Name                 Start_year End_year Duration
##    <chr>                     <dbl>    <dbl>    <dbl>
##  1 Christian 4.               1588     1648       60
##  2 Margrete 2.                1972     2023       51
##  3 Erik 7. af Pommern         1396     1439       43
##  4 Christian 9.               1863     1906       43
##  5 Christian 7.               1766     1808       42
##  6 Valdemar 2. Sejr           1202     1241       39
##  7 Valdemar 4. Atterdag       1340     1375       35
##  8 Christian 10.              1912     1947       35
##  9 Erik 6. Menved             1286     1319       33
## 10 Chrstian 1.                1448     1481       33
## # ℹ 15 more rows
…
